%YAML 1.1
%TAG !u! tag:unity3d.com,2011:
--- !u!114 &11400000
MonoBehaviour:
  m_ObjectHideFlags: 0
  m_PrefabParentObject: {fileID: 0}
  m_PrefabInternal: {fileID: 0}
  m_GameObject: {fileID: 0}
  m_Enabled: 1
  m_EditorHideFlags: 0
  m_Script: {fileID: 11500000, guid: 41cb500cf0f58e74f9a52a8af931edde, type: 3}
  m_Name: -tk2d
  m_EditorClassIdentifier: 
  version: 4
  spriteAnimationIndex:
  - assetGUID: 18a39674a9b14f54b97497254e83b349
    dataGUID: 
    managed: 0
    loadable: 0
  - assetGUID: 68cc4da10d501f9439d1507a1a2c46c1
    dataGUID: 
    managed: 0
    loadable: 0
  - assetGUID: eba2002e1b52e457f811082cb3edaa4d
    dataGUID: 
    managed: 0
    loadable: 0
  - assetGUID: 75d9585fd8b58a046a28080252a65f5d
    dataGUID: 
    managed: 0
    loadable: 0
  fontIndex:
  - assetGUID: 063b15d80dbb4604d890600a64c79cf8
    dataGUID: e7a6b09a73c6b2b4f8060096ddbd3b5e
    managed: 0
    loadable: 0
  - assetGUID: 5b9fac241be038041b70ac7e84cd6151
    dataGUID: 3082bbcb45b417041963b6b8562266c1
    managed: 0
    loadable: 0
  - assetGUID: db60ffa92fa16ea478fc7ad4f595a0e6
    dataGUID: 44e006873ca04f741b2ac3ba5dec92ad
    managed: 0
    loadable: 0
  - assetGUID: 696edcc0ae48b72449b2be1a439a7afb
    dataGUID: fb1b97eccf6db514999d1605baf017e5
    managed: 0
    loadable: 0
  - assetGUID: d54d053b1eb9f435ba39d0a7275f7576
    dataGUID: 00d50654c71944d04960d88e3c352cc1
    managed: 0
    loadable: 0
  - assetGUID: 622b62f4ce4054167ba7243119b7143c
    dataGUID: dc5e8cfc5fff846d7a573bb8f5960093
    managed: 0
    loadable: 0
  - assetGUID: f6e659f74eb1b461b9ba3f6418086bbb
    dataGUID: cb3bf0ad5e92744d6856da9a7d5a3125
    managed: 0
    loadable: 0
  spriteCollectionIndex:
  - name: DemoSpiderSpriteCollection
    spriteCollectionGUID: 1fe2f34d6bac2b440944f04ac87d9e8a
    spriteCollectionDataGUID: 822f1f9eedf119f4eaca33509ba7b549
    spriteNames:
    - body
    - lowerleg
    - mouth
    - upperleg
    spriteTextureGUIDs:
    - 17a4fe5393d6f6048b0a96839cd54591
    - 731aac236e6d1724fb48cd35227e8998
    - 871eb2b697bff4f4e832b95668b9b3cc
    - 75f62f68bfc69b04d876f87672036e09
    spriteTextureTimeStamps:
    - 1425735505
    - 1425735549
    - 1425735558
    - 1425735550
    managedSpriteCollection: 0
    loadable: 0
    assetName: 
    version: 3
  - name: DemoMultiAtlas
    spriteCollectionGUID: 6abdf3241ce81204293a7d50f971e3d7
    spriteCollectionDataGUID: e40f26e01721f87448061d44beed20dd
    spriteNames:
    - explosion_44FR/0
    - explosion_44FR/1
    - explosion_44FR/2
    - explosion_44FR/3
    - explosion_44FR/4
    - explosion_44FR/5
    - explosion_44FR/6
    - explosion_44FR/7
    - explosion_44FR/8
    - explosion_44FR/9
    - explosion_44FR/10
    - explosion_44FR/11
    - explosion_44FR/12
    - explosion_44FR/13
    - explosion_44FR/14
    - explosion_44FR/15
    - explosion_44FR/16
    - explosion_44FR/17
    - explosion_44FR/18
    - explosion_44FR/19
    - explosion_44FR/20
    - explosion_44FR/21
    - explosion_44FR/22
    - explosion_44FR/23
    - explosion_44FR/24
    - explosion_44FR/25
    - explosion_44FR/26
    - explosion_44FR/27
    - explosion_44FR/28
    - explosion_44FR/29
    - explosion_44FR/30
    - explosion_44FR/31
    - explosion_44FR/32
    - explosion_44FR/33
    - explosion_44FR/34
    - explosion_44FR/35
    - explosion_44FR/36
    - explosion_44FR/37
    - explosion_44FR/38
    - explosion_44FR/39
    - explosion_44FR/40
    - explosion_44FR/41
    - explosion_44FR/42
    - explosion_44FR/43
    spriteTextureGUIDs:
    - f38c1e9651d69654c87ea0956466e36d
    - f38c1e9651d69654c87ea0956466e36d
    - f38c1e9651d69654c87ea0956466e36d
    - f38c1e9651d69654c87ea0956466e36d
    - f38c1e9651d69654c87ea0956466e36d
    - f38c1e9651d69654c87ea0956466e36d
    - f38c1e9651d69654c87ea0956466e36d
    - f38c1e9651d69654c87ea0956466e36d
    - f38c1e9651d69654c87ea0956466e36d
    - f38c1e9651d69654c87ea0956466e36d
    - f38c1e9651d69654c87ea0956466e36d
    - f38c1e9651d69654c87ea0956466e36d
    - f38c1e9651d69654c87ea0956466e36d
    - f38c1e9651d69654c87ea0956466e36d
    - f38c1e9651d69654c87ea0956466e36d
    - f38c1e9651d69654c87ea0956466e36d
    - f38c1e9651d69654c87ea0956466e36d
    - f38c1e9651d69654c87ea0956466e36d
    - f38c1e9651d69654c87ea0956466e36d
    - f38c1e9651d69654c87ea0956466e36d
    - f38c1e9651d69654c87ea0956466e36d
    - f38c1e9651d69654c87ea0956466e36d
    - f38c1e9651d69654c87ea0956466e36d
    - f38c1e9651d69654c87ea0956466e36d
    - f38c1e9651d69654c87ea0956466e36d
    - f38c1e9651d69654c87ea0956466e36d
    - f38c1e9651d69654c87ea0956466e36d
    - f38c1e9651d69654c87ea0956466e36d
    - f38c1e9651d69654c87ea0956466e36d
    - f38c1e9651d69654c87ea0956466e36d
    - f38c1e9651d69654c87ea0956466e36d
    - f38c1e9651d69654c87ea0956466e36d
    - f38c1e9651d69654c87ea0956466e36d
    - f38c1e9651d69654c87ea0956466e36d
    - f38c1e9651d69654c87ea0956466e36d
    - f38c1e9651d69654c87ea0956466e36d
    - f38c1e9651d69654c87ea0956466e36d
    - f38c1e9651d69654c87ea0956466e36d
    - f38c1e9651d69654c87ea0956466e36d
    - f38c1e9651d69654c87ea0956466e36d
    - f38c1e9651d69654c87ea0956466e36d
    - f38c1e9651d69654c87ea0956466e36d
    - f38c1e9651d69654c87ea0956466e36d
    - f38c1e9651d69654c87ea0956466e36d
    spriteTextureTimeStamps:
    - 1425735613
    - 1425735613
    - 1425735613
    - 1425735613
    - 1425735613
    - 1425735613
    - 1425735613
    - 1425735613
    - 1425735613
    - 1425735613
    - 1425735613
    - 1425735613
    - 1425735613
    - 1425735613
    - 1425735613
    - 1425735613
    - 1425735613
    - 1425735613
    - 1425735613
    - 1425735613
    - 1425735613
    - 1425735613
    - 1425735613
    - 1425735613
    - 1425735613
    - 1425735613
    - 1425735613
    - 1425735613
    - 1425735613
    - 1425735613
    - 1425735613
    - 1425735613
    - 1425735613
    - 1425735613
    - 1425735613
    - 1425735613
    - 1425735613
    - 1425735613
    - 1425735613
    - 1425735613
    - 1425735613
    - 1425735613
    - 1425735613
    - 1425735613
    managedSpriteCollection: 0
    loadable: 0
    assetName: 
    version: 3
  - name: DemoSpriteCollection
    spriteCollectionGUID: 71d75aef51c47034082eca27f2eb6e30
    spriteCollectionDataGUID: b5aec6ebd1a8ffc458a2e46a3236acab
    spriteNames:
    - bubble_green
    - bubble_red
    - bubble_orange
    - sun
    - bg
    - smoke0
    - smoke4
    - smoke2
    - smoke3
    - smoke1
    - explosion_beam
    - smoke
    - core
    - bg1
    - sheep_0
    - sheep_1
    - sheep_2
    - cloud1
    - cloud2
    - Brown Block
    - Chest Closed
    - Stone Block
    - Rock
    - crate
    - ground
    - smoke5
    - animdemo_4
    - animdemo_5
    - animdemo_1
    - animdemo_3
    - animdemo_2
    - button_down
    - button_up
    - wavyground
    - starspike
    - platform
    - platform_spiked
    - 2dtoolkit_logo
    - background
    - slicedButton_down
    - slicedButton_up
    - attachpoint_glasses
    - attachpoint_gun
    - attachpoint_walk/0
    - attachpoint_walk/1
    - attachpoint_walk/2
    - attachpoint_walk/3
    - attachpoint_walk/4
    - attachpoint_walk/5
    spriteTextureGUIDs:
    - 7aca923e78526cd4b984265f396e04d8
    - bb6c9fb18b1dc46499fc0567ff873e42
    - 4a3adedb01045d0458d6e6330d1dd25d
    - 60ab1d7b85ae054498eb9122996758d9
    - b5e1233ff1ab3d14a8b3e3910c4c8281
    - c9b9253339e73124bbe3b5012f4bc936
    - 39734a83ab620ae42b7fd778891e490e
    - 287c70551d47fed40aaed1d763b2c586
    - f54a71b7ee1fcd541859ccce61c15d4f
    - e89d30fcbd3b3cb4f81b9f612565cd15
    - 972d12151f1a30d4fb5c0457807734e9
    - 6109dd1f0c6a20e40b9a5cc3cd4bbfaa
    - 41539258830f7a24abc38d8bbe487af3
    - 0d86fdb28836c6445974f98f412dfbf2
    - c25d0635778cf614eb2cca727e071fd6
    - d20c61a95bed34948a4408be780c3d55
    - df162a39ace0bbb4dbbe4c348669075c
    - 4a902aa2ec2deaa469755f61aa3e8134
    - a329c3266c887ba44b0bf7c627043688
    - 9fc5fcd3fc8803f4caf11d337579f6c8
    - 6b3b26a1fb4ebcf448d47859ec1cb66f
    - 2deb4cd15b4f4144894c8b9f4f1a19a3
    - 82f0ed3ac7232ae4c8b948fb7654f205
    - f6724743a506f464ea1684044c461aef
    - 2f1986f4c79909a4ca592f02dec914e4
    - 3fe04aba96e31d748a88af0fdc870d13
    - 27e59c976f45f48488bd746d93f38085
    - ce42d39374f446b43974cdf748be1594
    - 7a1c114efdc6f1548b40b62b7666cf2e
    - caa05169d2cbf6b4d8d7748e71781a40
    - e84a1e8c2679c6347b789eb93ff1893f
    - f31ec590f22df524e97e5d2f9139ec46
    - a6bc359a914e1df468afe824439ede88
    - abd2d4d8e662ace4c961589c5d18e01f
    - fe18dfa9012243c4ea82497709a18b26
    - c6c9f7d3fb91a8d4db53b929d3b367df
    - 129360c4101c34f4f8a5650c70863c8c
    - d4b13e5fdf4b0f540be8e00a364ddd35
    - d87ec7b1d50a9164f85cac54c36371e8
    - 8eecf2da5d1c91845ac19745f5828760
    - e322d00650c45ff49ad06ce7a54418a6
    - 67d25fa2d2d3a44e3a662cc8b83e1ee1
    - 2733d522def134859aee48fa56620cc2
    - fa207f7bcc782490fa19b3fa60b34f8e
    - fa207f7bcc782490fa19b3fa60b34f8e
    - fa207f7bcc782490fa19b3fa60b34f8e
    - fa207f7bcc782490fa19b3fa60b34f8e
    - fa207f7bcc782490fa19b3fa60b34f8e
    - fa207f7bcc782490fa19b3fa60b34f8e
    spriteTextureTimeStamps:
    - 1425735553
    - 1425735583
    - 1425735531
    - 1425735539
    - 1425735581
    - 1425735589
    - 1425735522
    - 1425735512
    - 1425735615
    - 1425735606
    - 1425735568
    - 1425735539
    - 1425735527
    - 1425735498
    - 1425735585
    - 1425735593
    - 1425735602
    - 1425735532
    - 1425735572
    - 1425735570
    - 1425735546
    - 1425735515
    - 1425735556
    - 1425735616
    - 1425735516
    - 1425735524
    - 1425735512
    - 1425735591
    - 1425735552
    - 1425735589
    - 1425735606
    - 1425735612
    - 1425735574
    - 1425735576
    - 1425735620
    - 1425735587
    - 1425735504
    - 1425735596
    - 1425735599
    - 1425735562
    - 1425735603
    - 1425735543
    - 1425735511
    - 1425735618
    - 1425735618
    - 1425735618
    - 1425735618
    - 1425735618
    - 1425735618
    managedSpriteCollection: 0
    loadable: 0
    assetName: 
    version: 3
  - name: DemoCameraSpriteCollection
    spriteCollectionGUID: ff338294f6bf0b345850bad080ef85dc
    spriteCollectionDataGUID: 4864518b0693631458553f73aaa86021
    spriteNames:
    - heart_empty
    - heart_full
    - heart_half
    - window
    spriteTextureGUIDs:
    - c3cedcf3f2f726c4ea2af2b350a9ce88
    - 5083dbb889212cf4082bbce0e506a093
    - 775e311b21d73a74c93ca74a71671b1e
    - 03fff0d1701d7e14399d5ee2209561dc
    spriteTextureTimeStamps:
    - 1425735585
    - 1425735534
    - 1425735550
    - 1425735495
    managedSpriteCollection: 0
    loadable: 0
    assetName: 
    version: 3
  - name: UIDemoSpriteCollection
    spriteCollectionGUID: 5d458a11aefe7ec43890453fbb141b28
    spriteCollectionDataGUID: a7b2ba5d04adf144faffa96ff7497955
    spriteNames:
    - SlicedButton
    - background
    - SlicedButton_Hover
    - InputItemBackground
    - InputItemBackgroundHover
    - CheckboxHighlight
    - Checkbox_X
    - Checkbox
    - RadioButtonDot
    - RadioButton
    - RadioButtonHover
    - DropDownButton
    - InputItemBackgroundHoverSolid
    - DropDownButtonHover
    - ScrollbarButtonUpDown
    - ScrollbarButtonUpDownHover
    - ScrollbarThumbButton
    - ScrollbarThumbButtonHover
    - Scrollbar
    - WhiteSquareAnchorTopLeft
    - 
    - WhiteSquare
    spriteTextureGUIDs:
    - 10b038b1b05b3d44998364213b44a84b
    - cdb8375bd7d44bf4c91ea5d1757cbc23
    - f3237190127778749a1642dc2a51c774
    - c7b713dc540174c40a68af7867190a07
    - a0607e12e73242f48a033d14fa2296a7
    - a894d1cc513d8194b80c2ee2188a02f3
    - 39bdc26444063be478543fbf0138d23e
    - 9d92e7051c626e94b9b9cf19dcaa2a66
    - a0b5fdbef0d8b8c498985af59a362e9f
    - f633ebe752e68f44f984163a0b5f19b0
    - 501566f271035e14ea9d5deca292ad9c
    - accb00e270a9cec42addd7602ee0264c
    - e4c720a60ede1944b957ba5ae82437bb
    - 8b1d935dde7b96146bbc799a60202c2c
    - bee881e7b06f83347a7986eaecec6ef3
    - 2b9bd56306a6a814984f2763a3fb1c00
    - 55998978b6504b14ba04ec09e5082488
    - eeaa80b602fa40a42a265023dc9cc359
    - 4334843461093dd42b9d4810d7595958
    - 20bf45e2e89271c43b72895d440f6ab7
    - 
    - 197a84f0983385f41a1d2b3cb0a99dd9
    spriteTextureTimeStamps:
    - 1425735501
    - 1425735591
    - 1425735613
    - 1425735587
    - 1425735570
    - 1425735575
    - 1425735522
    - 1425735569
    - 1425735571
    - 1425735616
    - 1425735533
    - 1425735577
    - 1425735604
    - 1425735559
    - 1425735584
    - 1425735513
    - 1425735535
    - 1425735610
    - 1425735528
    - 1425735509
    - 0
    - 1425735506
    managedSpriteCollection: 0
    loadable: 0
    assetName: 
    version: 3
  - name: UIDemoDark
    spriteCollectionGUID: d09c95902d7b64b389a4a51954b26537
    spriteCollectionDataGUID: d99abb00044ca4f508e7e94f55f6a425
    spriteNames:
    - button_bg
    - checkbox_bg
    - checkbox_tick
    - radiobutton_bg
    - radiobutton_fg
    - slider_bg
    - slider_button
    - slider_fg
    - textbox_bg
    - window_bg
    - bg
    - textbox_bg_selected
    - profile_pic
    spriteTextureGUIDs:
    - d7ca58a2b7e95495ebaf20527bc1e039
    - 90107987410404950bdf45be1f76ce43
    - 45bc5dd920ae343f7ad74ead506687b2
    - 2ed0c837bd46b483bab8e68a9bb8c5e0
    - 2a83caf5a455248199485e5da3ff5500
    - 2dff47291cc184c58b3ca4b700a00c4e
    - 0dfd239ca260444eb869628fb04f885e
    - bbda36fe208274750aa6fb343d5a0288
    - 497b9ad7eb29145da83de9ae7b39627a
    - b7343bf4e58b84eb4bcf5da6b2a6e236
    - ed6eace5351574075b607cc35ce3ba92
    - 37ab6cccc3fca43c9b22ef17ad289719
    - decb81f6e18f248ff88c3eed04676420
    spriteTextureTimeStamps:
    - 1425735598
    - 1425735563
    - 1425735528
    - 1425735516
    - 1425735513
    - 1425735515
    - 1425735499
    - 1425735583
    - 1425735531
    - 1425735582
    - 1425735609
    - 1425735520
    - 1425735601
    managedSpriteCollection: 0
    loadable: 0
    assetName: 
    version: 3
  - name: TilemapdemoSpriteCollection
    spriteCollectionGUID: 3c24cb31cb6f180469332c6b611fbde2
    spriteCollectionDataGUID: f5e64bab9902aaa4593a2652b8552744
    spriteNames:
    - rocks/0
    - rocks/1
    - rocks/2
    - rocks/3
    - rocks/4
    - rocks/5
    - rocks/6
    - rocks/7
    - rocks/8
    - rocks/9
    - rocks/10
    - rocks/11
    - rocks/12
    - rocks/13
    - rocks/14
    - rocks/15
    - rocks/16
    - rocks/17
    - rocks/18
    - rocks/19
    - rocks/20
    - rocks/21
    - rocks/22
    - rocks/23
    - rocks/24
    - rocks/25
    - rocks/26
    - rocks/27
    - rocks/28
    - coinIcon
    - smallPlantIcon
    - coin_0001
    - coin_0002
    - coin_0003
    - coin_0004
    - coin_0005
    - coin_0006
    - coin_0007
    - coin_0008
    - coin_0009
    - coin_0010
    - coin_0011
    - coin_0012
    - coin_0013
    - coin_0014
    - coin_0015
    - coin_0016
    - coin_0017
    - coin_0018
    - coin_0019
    - player
    - player_disabled
    - blocker
    spriteTextureGUIDs:
    - 3321301d154f97a4895a70fbb2f516db
    - 3321301d154f97a4895a70fbb2f516db
    - 3321301d154f97a4895a70fbb2f516db
    - 3321301d154f97a4895a70fbb2f516db
    - 3321301d154f97a4895a70fbb2f516db
    - 3321301d154f97a4895a70fbb2f516db
    - 3321301d154f97a4895a70fbb2f516db
    - 3321301d154f97a4895a70fbb2f516db
    - 3321301d154f97a4895a70fbb2f516db
    - 3321301d154f97a4895a70fbb2f516db
    - 3321301d154f97a4895a70fbb2f516db
    - 3321301d154f97a4895a70fbb2f516db
    - 3321301d154f97a4895a70fbb2f516db
    - 3321301d154f97a4895a70fbb2f516db
    - 3321301d154f97a4895a70fbb2f516db
    - 3321301d154f97a4895a70fbb2f516db
    - 3321301d154f97a4895a70fbb2f516db
    - 3321301d154f97a4895a70fbb2f516db
    - 3321301d154f97a4895a70fbb2f516db
    - 3321301d154f97a4895a70fbb2f516db
    - 3321301d154f97a4895a70fbb2f516db
    - 3321301d154f97a4895a70fbb2f516db
    - 3321301d154f97a4895a70fbb2f516db
    - 3321301d154f97a4895a70fbb2f516db
    - 3321301d154f97a4895a70fbb2f516db
    - 3321301d154f97a4895a70fbb2f516db
    - 3321301d154f97a4895a70fbb2f516db
    - 3321301d154f97a4895a70fbb2f516db
    - 3321301d154f97a4895a70fbb2f516db
    - f9669c4878bb0457faae1278f922a8fb
    - 0e83afcbf810b4a3083b1bc40bf10632
    - ed4e27755606145119540aa1f40e8573
    - 405c14b3dd718434dbacb3945458f90d
    - 7f00ef65d8c1d4cae88cba15b733a07a
    - eb9dd8d48e9594874b48920784e70ef0
    - b34e64ed66b214727ae57be6e1e3d5e5
    - 3761fccbada1248f794447a21a434c0f
    - 258cdc34d93804d70b428087c3f8805d
    - fe7429e30f1c9446aac350b30e864b1d
    - c95f5192f996c453e82f8f8788947a97
    - f5dcfce2fc7a44bcfa8710067aebdb38
    - 2494c4e408a874a46a2602aa4f593417
    - 714843c5e35ad497ea16ca22bf42f2ab
    - e06142f46f9fe4582999bafa9dc40960
    - cf3abded0b5874daeab801327a1945ce
    - 79e88bc7ad84a469da17b781db36d979
    - 8eac813a1d4ca4af4813568b22d501f9
    - d51f36f3836684e5b98cffc1bb2fc27d
    - ac9594eb4576b496394894763a3caa34
    - a06b4afb82724467390888de8251fee2
    - a882bc5b5d57946b6b95f0d5e35cdba9
    - 501d2022a48b64cb09a5d51f14934d38
    - 113be3445db084cd88073b16fbb9fff2
    spriteTextureTimeStamps:
    - 1425735518
    - 1425735518
    - 1425735518
    - 1425735518
    - 1425735518
    - 1425735518
    - 1425735518
    - 1425735518
    - 1425735518
    - 1425735518
    - 1425735518
    - 1425735518
    - 1425735518
    - 1425735518
    - 1425735518
    - 1425735518
    - 1425735518
    - 1425735518
    - 1425735518
    - 1425735518
    - 1425735518
    - 1425735518
    - 1425735518
    - 1425735518
    - 1425735518
    - 1425735518
    - 1425735518
    - 1425735518
    - 1425735518
    - 1425735618
    - 1425735500
    - 1425735609
    - 1425735526
    - 1425735554
    - 1425735608
    - 1425735580
    - 1425735520
    - 1425735510
    - 1425735621
    - 1425735588
    - 1425735615
    - 1425735510
    - 1425735548
    - 1425735602
    - 1425735592
    - 1425735552
    - 1425735561
    - 1425735596
    - 1425735577
    - 1425735571
    - 1425735575
    - 1425735533
    - 1425735503
    managedSpriteCollection: 0
    loadable: 0
    assetName: 
    version: 3
  - name: GameSpriteCollection
    spriteCollectionGUID: 3b41fa1eb08a12d418a64e9af38eb6fa
    spriteCollectionDataGUID: bec6be33a4eef6348a151308b7af866b
    spriteNames:
    - room_entrance
    - room_bedroom
    - room_dininghall
    - room_kitchen
    - room_stairs
    - notebook
    - hair_male_blonde
    - hair_bald
    - hair_male_brown
    - face
    - hair_female_blonde
    - eyes
    - hair_female_brown
    - hair_female_black
    - hair_male_ginger
    - clothes_male_1
    - clothes_female_1
    - legs
    - player
    - clue
    - censor
    spriteTextureGUIDs:
    - 0cb977b966094fe4783f72f591e6d312
    - 5fb8b46f9ca04b042af0300e5162518d
    - 63b14e55c01ec5a41945309e2e38d49a
    - d78d5191f9cc1ac4794e6462a978da48
    - 091657dd4fafedc4f9d51ce34a50c909
    - 042ed2aca309f4d498d3a5d1b47d6af1
    - 05f61e9f7d6247c41b895d244c404e23
    - 0d176393328beb4428b0e4e14df3d9d4
    - 1726452ac662f544fa4f7654c4286ef8
    - 1d50078c9acae2742b5307db102bc6b0
    - 4f94d943f6376d843860d79995eddbe7
    - 7841b2d082e742a4b8aa856a919ccd97
    - ad9a8afddce940f4da9cbd2b199d524f
    - cd6944998bf78be43897d4366bb2d4e9
    - fd91c92c107498b4aa827cb68daa377d
    - 631dc497e9ef0dc41b29af56801e5ca8
    - 6447c20110c841b4dbafd1821783ed60
    - 96fc99e511c0b374d954035c12bebc58
    - eefb4198d9a795e4d91990a39b3f4ce5
    - 3a8234270865aaa45b86246795cb3b9f
    - 5c0cc3044e80356418201fd2d2b78599
    spriteTextureTimeStamps:
    - 1429475211.695
    - 1429475202.89912
    - 1429476498.38718
    - 1429476761.19726
    - 1429475537.56476
    - 1429442165.06689
    - 1429457778.91332
    - 1429457818.81994
    - 1429457808.93618
    - 1429465593.5129
    - 1429457749.07528
    - 1429465561.53603
    - 1429456213.51042
    - 1429457762.39157
    - 1429457795.7094
    - 1429458935.07896
    - 1429458906.12425
    - 1429458953.29914
    - 1429480394.77265
    - 1429483012.53436
    - 1429481586.21065
    managedSpriteCollection: 0
    loadable: 0
    assetName: 
    version: 3
